Data Science Sample 1
…
names <- read_csv("SSA-longtail-names.csv", 
                  col_types = cols(X1 = col_skip(), sex = col_character()))

## Warning: Missing column names filled in: 'X1' [1]

names$sum = names %>% select(`1880`:`2010`) %>% rowSums()

names_prop = names %>% 
  pivot_longer(`1880`:`2010`, names_to = "year", values_to = "count") 

names_prop %>% 
  mutate(year = as.numeric(year)) %>% group_by(year) %>% 
  mutate(annual_sum = sum(count), proportion = count/annual_sum)

## # A tibble: 12,857,388 x 7
## # Groups:   year [131]
##    name  sex       sum  year count annual_sum proportion
##    <chr> <chr>   <dbl> <dbl> <dbl>      <dbl>      <dbl>
##  1 Mary  F     4103935  1880  7065     201486     0.0351
##  2 Mary  F     4103935  1881  6919     192703     0.0359
##  3 Mary  F     4103935  1882  8149     221538     0.0368
##  4 Mary  F     4103935  1883  8012     216954     0.0369
##  5 Mary  F     4103935  1884  9217     243466     0.0379
##  6 Mary  F     4103935  1885  9128     240858     0.0379
##  7 Mary  F     4103935  1886  9891     255323     0.0387
##  8 Mary  F     4103935  1887  9888     247395     0.0400
##  9 Mary  F     4103935  1888 11754     299488     0.0392
## 10 Mary  F     4103935  1889 11649     288959     0.0403
## # ... with 12,857,378 more rows
…
It appears the name Mason exploded in popularity in the 1980’s. The true reason for this is unknown, but it could be due to renewed interest in the freemason society.

Biggest changes in popularity in one year

We will now scour the data for the biggest one year changes in name popularity.

Top gainers over prior year as a percent

names_prop %>% group_by(name, sex) %>% mutate(prevcount = lag(count)) %>% 
  mutate(growth_factor = count/prevcount) %>% 
  mutate(difference = count-prevcount) %>% 
  filter(prevcount > 5000) %>% arrange(desc(growth_factor))

## # A tibble: 12,039 x 8
## # Groups:   name, sex [504]
##    name       sex       sum year  count prevcount growth_factor difference
##    <chr>      <chr>   <dbl> <chr> <dbl>     <dbl>         <dbl>      <dbl>
##  1 Debra      F      549898 1951  17045      6185          2.76      10860
##  2 Nicholas   M      847367 1978  16344      6067          2.69      10277
##  3 Jason      M      991561 1969  16498      7157          2.31       9341
##  4 Ashley     F      816948 1983  33280     14844          2.24      18436
##  5 Cindy      F      253906 1957  20248      9987          2.03      10261
##  6 Brittany   F      353486 1985  15433      7660          2.01       7773
##  7 Robert     M     4767995 1912  12835      6525          1.97       6310
##  8 Jacqueline F      411757 1961  10978      5651          1.94       5327
##  9 Charles    M     2335387 1912  11072      5726          1.93       5346
## 10 Deborah    F      737810 1948  11247      5831          1.93       5416
## # ... with 12,029 more rows

The name that grew as a percent the most (with at least 5000 babies of the same name in the prior year) was Debra. In 1951 the amount of Debra babies grew from 6185 to 17045.

Top losers over prior year as a percent

names_prop %>% group_by(name, sex) %>% mutate(prevcount = lag(count)) %>% 
  mutate(growth_factor = count/prevcount) %>% mutate(difference = count-prevcount) %>% 
  filter(prevcount > 5000) %>% arrange(growth_factor)

## # A tibble: 12,039 x 8
## # Groups:   name, sex [504]
##    name      sex       sum year  count prevcount growth_factor difference
##    <chr>     <chr>   <dbl> <chr> <dbl>     <dbl>         <dbl>      <dbl>
##  1 Brittany  F      353486 2001   2929      5176         0.566      -2247
##  2 Warren    M      170805 1922   4482      7797         0.575      -3315
##  3 Brooke    F      171659 1982   3149      5329         0.591      -2180
##  4 Brittany  F      353486 2000   5176      7940         0.652      -2764
##  5 James     M     5049727 1901   4735      7246         0.653      -2511
##  6 George    M     1443869 1901   3609      5405         0.668      -1796
##  7 Christine F      581689 1953  11798     17531         0.673      -5733
##  8 Latoya    F       45301 1985   3404      5048         0.674      -1644
##  9 Jaime     F       49138 1978   4002      5903         0.678      -1901
## 10 Chelsea   F      151211 1994   7715     11289         0.683      -3574
## # ... with 12,029 more rows
…
